<?xml version="1.0" encoding="utf-8"?>
<!-- Generator: Adobe Illustrator 19.0.0, SVG Export Plug-In . SVG Version: 6.00 Build 0)  -->
<svg version="1.1" id="Layer_1" xmlns="http://www.w3.org/2000/svg" xmlns:xlink="http://www.w3.org/1999/xlink" x="0px" y="0px"
	 viewBox="-692.1 382.4 317 297.6" style="enable-background:new -692.1 382.4 317 297.6;" xml:space="preserve">
<style type="text/css">
	.st0{fill:none;stroke:#322D50;stroke-width:0.5;}
</style>
<path id="Path_5311" class="st0" d="M-423.6,470.9l-94,2.3l-18.1-73l-121.2-17.6L-691.8,527l162.3,145.8l154,6.8 M-423.6,470.9
	L-434.8,590l-40.2,56.5l-54.5,26.3 M-423.6,470.9l48.2,208.7l-99.5-33.1 M-562.8,500.6l27.1-100.4 M-517.6,473.2l-45.2,27.4
	l-129,26.5l257,63l59.4,89.6 M-656.9,382.6l94.1,117.9l128,89.5"/>
</svg>
