<svg xmlns="http://www.w3.org/2000/svg" width="715" height="166" viewBox="0 0 715 166">
  <text id="CENTER" transform="translate(1 131)" fill="none" stroke="#322d50" stroke-width="1" font-size="130" font-family="GTAmerica-ExpandedBold, GT America" font-weight="700"><tspan x="0" y="0">CENTER</tspan></text>
</svg>
