<?xml version="1.0" encoding="utf-8"?>
<!-- Generator: Adobe Illustrator 19.0.0, SVG Export Plug-In . SVG Version: 6.00 Build 0)  -->
<svg version="1.1" id="Layer_1" xmlns="http://www.w3.org/2000/svg" xmlns:xlink="http://www.w3.org/1999/xlink" x="0px" y="0px"
	 viewBox="-590.8 61.6 1005.8 910.3" style="enable-background:new -590.8 61.6 1005.8 910.3;" xml:space="preserve">
<style type="text/css">
	.st0{fill:none;stroke:#5C6477;stroke-width:2;}
</style>
<path class="st0" d="M-589.2,970.3l483-8.8L414,517.7L316.3,62.7l-381.1,45.2L-127.4,335l-294.1-14.7 M-106.2,961.5l-168.5-86.7
	l-121.4-180.4l-25.4-374.1 M-274.8,874.8l-314.5,95.6l167.7-650.1 M-64.8,107.9L12,424.5 M-589.2,970.3l193.1-275.9L414,517.7
	L12,424.5L-127.5,335 M-396.2,694.4L12,424.5L316.3,62.7"/>
</svg>
