<svg xmlns="http://www.w3.org/2000/svg" xmlns:xlink="http://www.w3.org/1999/xlink" width="1366" height="510" viewBox="0 0 1366 510">
  <defs>
    <radialGradient id="radial-gradient" cx="0.738" cy="0.555" r="0.902" gradientTransform="matrix(-0.026, 1, -0.325, -0.008, 0.923, -0.237)" gradientUnits="objectBoundingBox">
      <stop offset="0" stop-color="#ffddc4ff"/>
      <stop offset="1" stop-color="#f8995d00"/>
    </radialGradient>
  </defs>
  <path id="Path_5475" data-name="Path 5475" d="M0,0H1366V510H0Z" opacity="0.6" fill="url(#radial-gradient)"/>
</svg>