<svg xmlns="http://www.w3.org/2000/svg" width="1919.148" height="2120.573" viewBox="0 0 1919.148 2120.573">
  <g id="Group_21067" data-name="Group 21067" transform="translate(-1246.567 487.782)" opacity="0.15">
    <path id="Path_5411" data-name="Path 5411" d="M2877.624-470.1a11.434,11.434,0,0,1,7.245-3.064c22.158-5.653,38.96,24.685,44.959,41.488,14.382,40.288.379,97.407-5.993,138.332-24.5,157.555,42.9,212.212,34.771,333-10.044,149.333-123.129,214.951-194.258,361.633-198.107,408.53,64.059,1059.536-38.505,1144.79-88.71,73.745-283.252-438.353-566.8-370.641-42.627,10.181-66.4,28.481-186.89,63.53-151.787,44.138-227.673,66.208-298.835,49.127-60.467-14.519-120.208-65.38-239.7-167.1-101.283-86.209-152.877-127.969-151.182-166.244,5.184-117.009,267.981-118.662,345.25-332.583,76.978-213.148-108.638-419.971-45.257-546.334,100.349-200.046,577.96,261.99,857.987-19.609C2523.467-27.289,2873.137-466.035,2877.624-470.1Z" transform="translate(206.314 79.316)" fill="none" stroke="#202945" stroke-miterlimit="10" stroke-width="0.25"/>
    <path id="Path_5412" data-name="Path 5412" d="M2863.943-471.931a11.07,11.07,0,0,1,9.354,2.365c24.9-2.813,46.042,27.905,55.159,47.69,14.52,40,1.614,97-4.7,137.979-24.238,156.538,37.713,210.525,25.709,328.53C2934.834,190.57,2816.762,252.324,2746.013,394.9c-198.175,399.36,63.117,1040.083-39.184,1123.148-88.493,71.84-283.388-432.816-562.926-366.473-42.213,9.9-65.827,27.776-184.341,62.243-149.373,43.379-224.243,65.57-294.225,48.151-61.965-15.427-121.8-69.176-238.355-170.175-98.708-85.674-146.411-125.135-144.426-163.594,5.984-115.924,261.468-119.849,336.724-331.8,74.924-211.311-106.462-416.176-41.773-540.762,102.585-197.26,577.995,258.126,857.18-15.02C2517.486-40.4,2859.47-470.908,2863.943-471.931Z" transform="translate(206.853 89.041)" fill="none" stroke="#202945" stroke-miterlimit="10" stroke-width="0.25"/>
    <path id="Path_5413" data-name="Path 5413" d="M2850.281-470.967a44.969,44.969,0,0,1,11.454,7.795c27.648.034,53.12,31.118,65.354,53.892,14.654,39.726,2.86,96.593-3.417,137.627-23.946,155.528,32.542,208.837,16.667,324.063-19.222,142.534-142.276,200.412-212.659,338.893-198.27,390.134,62.181,1020.644-39.868,1101.505-88.271,69.935-283.354-426.594-559.056-362.3-41.752,9.733-65.245,27.078-181.786,60.975-146.974,42.606-220.813,64.872-289.617,47.161-63.469-16.342-123.393-72.985-237.006-173.252-96.146-85.132-139.952-122.3-137.675-160.957,6.765-114.826,254.955-121.021,328.191-331.023,72.87-209.447-104.293-412.373-38.275-535.184,104.828-194.467,578.054,254.236,856.372-10.431C2511.53-50.732,2845.387-473.055,2850.281-470.967Z" transform="translate(207.386 95.974)" fill="none" stroke="#202945" stroke-miterlimit="10" stroke-width="0.25"/>
    <path id="Path_5414" data-name="Path 5414" d="M2836.624-469.763c3.206,3.416,7.3,7.686,13.556,13.231,30.406,2.88,60.2,34.337,75.547,60.087,14.8,39.448,4.107,96.193-2.121,137.275-23.669,154.525,27.1,207.108,7.611,319.6-24.109,139.084-151.834,193.112-221.851,327.526-198.392,380.869,61.233,1001.2-40.553,1079.863-88.053,68.038-283.4-420.717-555.192-358.129-41.318,9.51-64.668,26.373-179.23,59.694-144.568,41.834-217.37,64.133-285.008,46.178-64.994-17.264-124.986-76.788-235.657-176.33-93.576-84.6-133.505-119.455-130.93-158.307,7.537-113.742,248.44-122.207,319.671-330.244,70.823-207.6-102.124-408.578-34.784-529.612,107.065-191.682,578.156,250.3,855.566-5.849C2505.6-60.833,2831.4-475.314,2836.624-469.763Z" transform="translate(207.908 102.659)" fill="none" stroke="#202945" stroke-miterlimit="10" stroke-width="0.25"/>
    <path id="Path_5415" data-name="Path 5415" d="M2822.969-468.518a72.7,72.7,0,0,0,15.663,18.653c33.145,5.734,67.272,37.557,85.742,66.3,14.932,39.17,5.355,95.793-.826,136.922-23.4,153.508,21.837,205.4-1.444,315.129-28.793,135.655-161.391,185.778-231.055,316.159-198.521,371.536,60.285,981.752-41.237,1058.221-87.829,66.119-283.456-414.847-551.323-353.967-40.885,9.3-64.086,25.675-176.668,58.42-142.168,41.075-213.934,63.368-280.405,45.189-66.52-18.179-126.58-80.584-234.316-179.4-91-84.054-127.047-116.609-124.173-155.664,8.283-112.65,241.921-123.393,311.145-329.458,68.763-205.76-99.956-404.789-31.3-524.048,109.309-188.9,578.318,246.346,854.766-1.261C2499.7-70.921,2817.627-477.574,2822.969-468.518Z" transform="translate(208.427 109.31)" fill="none" stroke="#202945" stroke-miterlimit="10" stroke-width="0.25"/>
    <path id="Path_5416" data-name="Path 5416" d="M2809.325-467.234c3.192,7.395,7.327,14.851,17.759,24.082,35.9,8.581,74.354,40.77,95.941,72.5,15.074,38.885,6.6,95.387.469,136.569-23.12,152.5,16.579,203.679-10.506,310.663C2879.525,208.79,2742.067,255,2672.742,381.364c-198.676,362.148,59.348,962.306-41.922,1036.572-87.6,64.228-283.517-408.971-547.445-349.785-40.457,9.069-63.51,24.977-174.126,57.145-139.762,40.3-210.47,62.547-275.79,44.2-68.051-19.107-128.389-84.156-232.966-182.484-88.616-83.322-120.6-113.755-117.423-153.013,9.009-111.552,235.407-124.573,302.618-328.672,66.7-203.916-97.793-400.993-27.817-518.483,111.559-186.1,578.536,242.361,853.959,3.335C2493.83-80.983,2803.93-479.76,2809.325-467.234Z" transform="translate(208.934 115.922)" fill="none" stroke="#202945" stroke-miterlimit="10" stroke-width="0.25"/>
    <path id="Path_5417" data-name="Path 5417" d="M2795.711-465.91c3.212,9.428,7.34,18.429,19.867,29.511,38.647,11.428,81.423,43.989,106.129,78.7,15.209,38.608,7.849,94.98,1.762,136.211-22.848,151.495,11.319,201.957-19.561,306.2-38.147,128.768-180.458,171.043-249.452,293.419-198.832,352.706,58.406,942.86-42.6,1014.937-87.4,62.317-283.578-403.115-543.582-345.624-40.024,8.852-62.927,24.272-171.564,55.871-137.363,39.529-207.014,61.7-271.195,43.217-69.59-20.042-130.022-87.917-231.618-185.561-86.088-82.746-114.149-110.908-110.678-150.363,9.733-110.454,228.9-125.759,294.1-327.9,64.648-202.066-95.617-397.191-24.333-512.9,113.8-183.317,578.807,238.335,853.16,7.917C2488-91.026,2790.269-481.859,2795.711-465.91Z" transform="translate(209.419 122.495)" fill="none" stroke="#202945" stroke-miterlimit="10" stroke-width="0.25"/>
    <path id="Path_5418" data-name="Path 5418" d="M2782.093-464.547c3.247,11.482,7.361,22.022,21.975,34.948,41.4,14.274,88.5,47.2,116.33,84.9,15.345,38.323,9.083,94.573,3.05,135.858-22.564,150.485,6.066,200.222-28.617,301.729-42.816,125.318-189.967,163.628-258.642,282.053-199.022,343.19,57.464,923.414-43.292,993.288-87.171,60.419-283.631-397.258-539.71-341.448-39.584,8.628-62.351,23.574-169.01,54.59-134.957,38.757-203.543,60.819-266.578,42.234-71.141-20.971-131.669-91.672-230.275-188.638-83.56-82.17-107.709-108.055-103.927-147.727,10.424-109.349,222.385-126.925,285.577-327.106,62.588-200.222-93.455-393.4-20.842-507.34C1664.172-227.73,2127.264,187.083,2400.486-34.7,2482.214-101.036,2776.63-483.9,2782.093-464.547Z" transform="translate(209.895 129.021)" fill="none" stroke="#202945" stroke-miterlimit="10" stroke-width="0.25"/>
    <path id="Path_5419" data-name="Path 5419" d="M2768.514-463.139c3.266,13.529,7.373,25.6,24.067,40.376,44.146,17.121,95.584,50.421,126.525,91.1,15.495,38.038,10.425,94.18,4.346,135.5-21.981,149.522.82,198.493-37.665,297.262-47.488,121.862-199.47,156.178-267.847,270.686-199.212,333.613,56.522,903.967-43.968,971.646-86.955,58.521-283.707-391.4-535.848-337.273-39.15,8.4-61.769,22.862-166.454,53.309-132.551,38-200.08,59.918-261.976,41.251-72.694-21.913-133.31-95.434-228.92-191.716-81.031-81.594-101.271-105.2-97.177-145.076,11.1-108.252,215.866-128.118,277.051-326.333,60.535-198.371-91.536-389.769-17.364-501.761,117.9-178,579.538,230.214,851.552,17.087C2476.477-111.035,2763.01-485.892,2768.514-463.139Z" transform="translate(210.346 135.51)" fill="none" stroke="#202945" stroke-miterlimit="10" stroke-width="0.25"/>
    <path id="Path_5420" data-name="Path 5420" d="M2754.965-461.686c3.308,15.59,4.969,32.406,26.178,45.806,43.087,27.22,102.652,53.634,136.718,97.3,15.623,37.767,11.671,93.78,5.64,135.153-21.684,148.519-4.427,196.745-46.728,292.8-52.136,118.391-208.952,148.7-277.043,259.319-199.409,323.954,55.58,884.515-44.654,950-86.737,56.61-283.768-385.559-531.97-333.111-38.724,8.181-61.124,22.395-163.906,52.042-130.063,37.509-196.6,58.975-257.374,40.261-74.247-22.862-134.943-99.2-227.572-194.793-78.5-81.024-94.824-102.348-90.425-142.433,11.767-107.14,209.358-129.3,268.53-325.547,58.481-196.521-89.395-385.993-13.874-496.2C1658.578-256.339,2118.5,145.033,2389.232-59.4,2470.805-121,2749.429-487.835,2754.965-461.686Z" transform="translate(210.757 141.953)" fill="none" stroke="#202945" stroke-miterlimit="10" stroke-width="0.25"/>
    <path id="Path_5421" data-name="Path 5421" d="M2741.469-460.188c3.328,17.657,4.92,36.019,28.271,51.235,45.779,29.837,109.736,56.854,146.913,103.507,15.772,37.482,12.932,93.38,6.934,134.8-21.371,147.51-9.666,195-55.776,288.329C2811.018,232.6,2649.4,258.849,2581.562,365.63c-199.6,314.228,54.645,865.076-45.331,928.362-86.521,54.712-283.843-379.717-528.108-328.943-38.3,7.964-60.534,21.717-161.343,50.767-127.656,36.777-193.119,58.013-252.765,39.278-75.82-23.811-136.59-102.958-226.23-197.87-75.981-80.448-88.384-99.494-83.674-139.79,12.411-106.035,203.231-130.361,260-324.767,56.806-194.562-87.252-382.218-10.39-490.625,122.3-172.493,580.576,222.02,849.947,26.272C2465.2-130.933,2735.9-489.713,2741.469-460.188Z" transform="translate(211.126 148.345)" fill="none" stroke="#202945" stroke-miterlimit="10" stroke-width="0.25"/>
    <path id="Path_5422" data-name="Path 5422" d="M2728.037-458.639c3.355,19.717,4.9,39.61,30.373,56.664,48.482,32.46,116.812,60.073,157.113,109.708,15.9,37.2,14.187,92.974,8.228,134.442-21.072,146.506-14.9,193.247-64.838,283.869-61.435,111.437-227.848,133.6-295.438,236.572-199.815,304.42,53.688,845.636-46.03,906.72-86.291,52.807-283.917-373.881-524.237-324.768-37.854,7.74-59.938,21.046-158.781,49.486-125.244,36.039-189.635,57.023-248.162,38.3-77.385-24.767-138.23-106.726-224.874-200.947-73.453-79.879-81.959-96.641-76.924-137.139,13.041-104.93,196.745-131.547,251.47-323.988,54.793-192.705-85.1-378.449-6.893-485.06,124.5-169.741,581.213,217.906,849.134,30.867C2459.716-140.832,2722.425-491.546,2728.037-458.639Z" transform="translate(211.422 154.692)" fill="none" stroke="#202945" stroke-miterlimit="10" stroke-width="0.25"/>
    <path id="Path_5423" data-name="Path 5423" d="M2714.7-457.038c3.389,21.777,4.894,43.19,32.48,62.093,51.208,35.089,123.889,63.286,167.3,115.91,16.05,36.92,15.446,92.567,9.522,134.089-20.768,145.5-20.109,191.492-73.9,279.4-66.052,107.967-237.251,126-304.63,225.212-200.012,294.511,52.746,826.19-46.707,885.071-86.081,50.91-283.991-368.045-520.368-320.6-37.428,7.524-59.361,20.368-156.232,48.219-122.831,35.307-186.138,56.013-243.547,37.306-78.964-25.723-139.885-110.495-223.538-204.024-70.932-79.309-75.521-93.78-70.167-134.5,13.644-103.818,190.266-132.72,242.944-323.2,52.773-190.862-82.949-374.681-3.416-479.489,126.728-167,581.965,213.785,848.347,35.449C2454.352-150.706,2709.055-493.328,2714.7-457.038Z" transform="translate(211.621 160.988)" fill="none" stroke="#202945" stroke-miterlimit="10" stroke-width="0.25"/>
    <path id="Path_5424" data-name="Path 5424" d="M2701.513-455.385c3.4,23.852,4.888,46.761,34.575,67.529,53.953,37.74,130.964,66.5,177.5,122.106,16.179,36.642,16.694,92.174,10.811,133.737-20.455,144.5-25.322,189.743-82.949,274.936-70.674,104.476-246.645,118.337-313.834,213.839-200.181,284.533,51.811,806.744-47.392,863.429-85.857,49-284.073-362.216-516.5-316.424-36.995,7.293-58.772,19.69-153.677,46.931-120.418,34.575-182.633,54.99-238.945,36.33-80.535-26.692-141.524-114.264-222.182-207.1-68.41-78.747-69.1-90.92-63.422-131.852,14.248-102.707,183.792-133.892,234.424-322.422,50.76-189-80.8-370.9.074-473.917C1648.932-312.505,2102.8,61.4,2367.535-108.23,2449.162-160.529,2695.834-495.05,2701.513-455.385Z" transform="translate(211.68 167.224)" fill="none" stroke="#202945" stroke-miterlimit="10" stroke-width="0.25"/>
    <path id="Path_5425" data-name="Path 5425" d="M2688.485-453.674c3.443,25.919,4.907,50.32,36.683,72.958,56.712,40.4,138.047,69.719,187.7,128.308,16.329,36.364,17.955,91.767,12.112,133.384-20.165,143.49-30.528,187.981-92.011,270.462-75.277,101-255.985,110.637-323.033,202.472-200.33,274.455,50.869,787.3-48.077,841.793-85.632,47.094-284.147-356.4-512.619-312.255-36.575,7.063-58.19,19.012-151.122,45.656-118.018,33.829-179.136,53.933-234.343,35.34-82.115-27.654-143.178-118.032-220.84-210.179-65.883-78.184-62.677-88.053-56.664-129.209,14.824-101.6,177.305-135.065,225.9-321.643,48.74-187.147-78.645-367.123,3.565-468.339,131.147-161.493,583.747,205.563,846.721,44.626C2444.186-170.313,2682.771-496.714,2688.485-453.674Z" transform="translate(211.566 173.41)" fill="none" stroke="#202945" stroke-miterlimit="10" stroke-width="0.25"/>
    <path id="Path_5426" data-name="Path 5426" d="M2675.692-451.9c3.463,27.986,4.921,53.871,38.784,78.388,59.471,43.06,145.124,72.931,197.884,134.509,16.471,36.079,19.208,91.361,13.407,133.032-19.867,142.48-35.721,186.225-101.061,266-79.877,97.522-265.31,102.876-332.23,191.106-200.458,264.281,49.92,767.852-48.76,820.144-85.424,45.189-284.249-350.585-508.763-308.087-36.134,6.846-57.592,18.341-148.566,44.382-115.592,33.1-175.618,52.861-229.727,34.357-83.7-28.63-144.825-121.807-219.491-213.263-63.368-77.615-56.258-85.193-49.92-126.559,15.393-100.477,170.832-136.244,217.376-320.856,46.715-185.3-76.49-363.348,7.05-462.774,133.37-158.734,584.805,201.476,845.928,49.215C2439.473-180.057,2669.938-498.325,2675.692-451.9Z" transform="translate(211.23 179.534)" fill="none" stroke="#202945" stroke-miterlimit="10" stroke-width="0.25"/>
    <path id="Path_5427" data-name="Path 5427" d="M2663.146-450.068c3.5,30.053,4.948,57.416,40.885,83.817,62.256,45.731,152.2,76.151,208.085,140.711,16.606,35.795,20.462,90.961,14.695,132.672C2907.25,48.609,2885.905,91.609,2816.7,168.668c-84.461,94.038-274.57,95.055-341.428,179.732-200.527,254.005,48.984,748.406-49.445,798.5-85.2,43.291-284.331-344.783-504.886-303.905-35.714,6.609-57.01,17.65-146.011,43.095-113.186,32.358-172.114,51.784-225.125,33.375-85.287-29.606-146.472-125.589-218.143-216.34-60.845-77.052-49.839-82.325-43.175-123.909,15.942-99.379,164.353-137.424,208.857-320.077,44.694-183.446-74.334-359.579,10.533-457.21,135.594-155.982,585.992,197.423,845.121,53.8C2435.054-189.746,2657.352-499.866,2663.146-450.068Z" transform="translate(210.64 185.597)" fill="none" stroke="#202945" stroke-miterlimit="10" stroke-width="0.25"/>
    <path id="Path_5428" data-name="Path 5428" d="M2650.886-448.171c3.524,32.128,4.982,60.961,42.986,89.253,65.042,48.409,159.283,79.363,218.279,146.906,16.748,35.523,21.723,90.561,16,132.327-19.27,140.474-46.083,182.728-119.171,257.069-89.042,90.554-283.8,87.172-350.631,168.365C2257.81,589.391,2506.379,1074.7,2408.22,1122.6,2323.245,1164,2123.789,783.628,1907.2,822.866c-35.28,6.392-56.42,16.972-143.457,41.82-110.773,31.633-168.589,50.672-220.516,32.392-86.873-30.6-148.126-129.365-216.8-219.417-58.325-76.5-43.419-79.465-36.417-121.265,16.477-98.26,157.865-138.6,200.329-319.3,42.669-181.6-72.178-355.8,14.018-451.638,137.823-153.223,587.3,193.41,844.328,58.4C2430.96-199.364,2645.05-501.338,2650.886-448.171Z" transform="translate(209.765 191.589)" fill="none" stroke="#202945" stroke-miterlimit="10" stroke-width="0.25"/>
    <path id="Path_5429" data-name="Path 5429" d="M2638.925-446.2c3.552,34.195,5.022,64.5,45.087,94.675,67.834,51.092,166.359,82.59,228.479,153.115,16.884,35.239,22.971,90.154,17.284,131.974-18.979,139.464-51.255,180.979-128.233,252.6-93.6,87.09-292.964,79.235-359.823,157-200.459,233.183,47.094,709.514-50.808,755.218-84.759,39.482-284.526-333.186-497.153-295.568-34.853,6.161-55.837,16.3-140.9,40.546-108.359,30.887-165.064,49.554-215.906,31.4-88.459-31.579-149.78-133.147-215.452-222.494-55.817-75.934-37.014-76.6-29.667-118.622,16.992-97.149,151.386-139.783,191.8-318.512,40.648-179.752-70.016-352.029,17.508-446.066,140.046-150.472,588.73,189.431,843.515,62.981C2427.221-208.931,2633.056-502.744,2638.925-446.2Z" transform="translate(208.59 197.516)" fill="none" stroke="#202945" stroke-miterlimit="10" stroke-width="0.25"/>
    <path id="Path_5430" data-name="Path 5430" d="M2627.271-444.163c3.572,36.269,5.063,68.031,47.188,100.111,70.626,53.777,173.436,85.8,238.674,159.317,17.019,34.954,24.217,89.747,18.571,131.615-18.673,138.454-56.419,179.237-137.281,248.136-98.167,83.627-289.5,84.86-369.021,145.625-155.772,255.774,46.151,690.068-51.492,733.576-84.542,37.584-284.629-327.4-493.289-291.4-34.425,5.944-55.247,15.623-138.345,39.272-105.947,30.155-161.534,48.415-211.3,30.42-90.045-32.582-151.427-136.929-214.1-225.572-53.288-75.385-30.609-73.731-22.91-115.978,17.494-96.037,144.894-140.962,183.277-317.732,38.621-177.9-67.862-348.254,20.985-440.5C1640.5-394.982,2088.528-61.742,2340.934-179.7,2423.815-218.429,2621.353-504.067,2627.271-444.163Z" transform="translate(207.116 203.367)" fill="none" stroke="#202945" stroke-miterlimit="10" stroke-width="0.25"/>
    <path id="Path_5431" data-name="Path 5431" d="M2615.9-442.043c3.606,38.337,5.118,71.562,49.3,105.54,73.433,56.474,180.513,89.015,248.868,165.518,17.162,34.676,25.471,89.348,19.867,131.263-18.382,137.451-61.572,177.5-146.338,243.662-102.707,80.177-298.266,78.015-378.218,134.266-153.542,247.729,45.209,670.615-52.177,711.927-84.318,35.679-284.744-321.623-489.412-287.224-34.011,5.714-54.664,14.945-135.79,37.99-103.541,29.417-158.008,47.276-206.7,29.43-91.639-33.571-153.081-140.711-212.754-228.642-50.775-74.836-24.212-70.871-16.166-113.335,17.988-94.926,138.413-142.141,174.75-316.946,36.6-176.052-65.692-344.478,24.482-434.924,144.513-144.968,592,181.691,841.915,72.158C2420.762-227.852,2609.956-505.323,2615.9-442.043Z" transform="translate(205.344 209.143)" fill="none" stroke="#202945" stroke-miterlimit="10" stroke-width="0.25"/>
    <path id="Path_5432" data-name="Path 5432" d="M2604.826-439.842c3.64,40.4,5.164,75.087,51.4,110.97,76.246,59.165,187.587,92.228,259.062,171.72,17.3,34.391,26.725,88.941,21.154,130.9-18.1,136.448-66.716,175.774-155.392,239.2-107.255,76.72-307.017,71.162-387.418,122.892-151.312,239.7,44.275,651.176-52.861,690.285-84.1,33.781-284.845-315.855-485.542-283.056-33.578,5.483-54.075,14.268-133.241,36.723-101.115,28.671-154.465,46.1-202.087,28.44-93.232-34.581-154.735-144.5-211.4-231.719-48.272-74.287-17.82-68.01-9.421-110.692,18.463-93.814,131.927-143.321,166.224-316.166,34.567-174.2-63.531-340.7,27.966-429.352,146.757-142.2,593.847,177.949,841.108,76.747C2418.038-237.187,2598.84-506.5,2604.826-439.842Z" transform="translate(203.282 214.839)" fill="none" stroke="#202945" stroke-miterlimit="10" stroke-width="0.25"/>
    <path id="Path_5433" data-name="Path 5433" d="M2594.033-437.558c3.653,42.478,5.219,78.618,53.5,116.405,79.059,61.863,194.664,95.448,269.255,177.916,17.44,34.113,27.98,88.541,22.457,130.558-17.806,135.431-71.874,174.052-164.448,234.736-111.8,73.277-315.78,64.316-396.621,111.525-149.082,231.652,43.332,631.723-53.539,668.636-83.885,31.877-284.968-310.093-481.678-278.881-33.151,5.253-53.486,13.59-130.681,35.435-98.714,27.945-150.925,44.938-197.49,27.464-94.817-35.591-156.382-148.3-210.05-234.8-45.751-73.745-11.421-65.143-2.664-108.041,18.925-92.716,125.434-144.514,157.7-315.387,32.541-172.358-61.354-336.92,31.456-423.787,148.987-139.437,595.813,174.3,840.3,81.336C2415.65-246.425,2588-507.581,2594.033-437.558Z" transform="translate(200.946 220.444)" fill="none" stroke="#202945" stroke-miterlimit="10" stroke-width="0.25"/>
    <path id="Path_5434" data-name="Path 5434" d="M2583.5-435.7c3.68,44.552,5.272,82.142,55.606,121.834,81.871,64.56,201.741,98.661,279.45,184.117,17.576,33.836,29.227,88.134,23.742,130.205-17.514,134.421-77.01,172.337-173.5,230.269-116.331,69.84-324.53,57.464-405.812,100.152-146.858,223.613,42.383,612.284-54.231,647-83.661,29.972-285.083-304.346-477.808-274.719-32.731,5.029-52.9,12.919-128.124,34.168-96.3,27.207-147.381,43.745-192.875,26.475-96.424-36.608-158.05-152.1-208.708-237.881-43.238-73.2-5.037-62.27,4.081-105.391,19.37-91.6,118.947-145.693,149.176-314.6,30.515-170.521-59.191-333.145,34.934-418.223,151.244-136.678,616.534,211.765,839.51,85.925C2417.461-240.8,2577.423-509.091,2583.5-435.7Z" transform="translate(198.348 226.481)" fill="none" stroke="#202945" stroke-miterlimit="10" stroke-width="0.25"/>
    <path id="Path_5435" data-name="Path 5435" d="M2573.2-433.32c3.714,46.619,5.334,85.66,57.708,127.257,84.691,67.272,208.816,101.887,289.644,190.326,17.718,33.558,30.48,87.727,25.044,129.846-17.236,133.418-82.162,170.629-182.565,225.8-120.858,66.417-333.288,50.625-415.01,88.785-144.623,215.574,41.441,592.837-54.908,625.358-83.451,28.074-285.2-298.6-473.938-270.544-32.317,4.8-52.32,12.241-125.569,32.887-93.9,26.475-143.842,42.552-188.279,25.492-98.01-37.638-159.69-155.907-207.359-240.965-40.715-72.653,1.349-59.4,10.838-102.741,19.805-90.493,112.461-146.879,140.65-313.821,28.481-168.67-57.023-329.356,38.425-412.644,153.488-133.92,618.207,209.576,838.7,90.513C2415.344-249.2,2567.1-510.087,2573.2-433.32Z" transform="translate(195.504 231.998)" fill="none" stroke="#202945" stroke-miterlimit="10" stroke-width="0.25"/>
    <path id="Path_5436" data-name="Path 5436" d="M2563.144-430.852c3.742,48.687,5.388,89.178,59.809,132.686,87.517,69.976,215.9,105.1,299.844,196.528,17.86,33.273,31.729,87.328,26.333,129.493-16.945,132.408-87.3,168.928-191.62,221.335-125.394,63-342.045,43.779-424.208,77.412-142.393,207.542,40.5,573.391-55.593,603.716-83.228,26.163-285.334-292.87-470.068-266.375-31.883,4.575-51.729,11.563-123.019,31.613-91.477,25.736-140.284,41.353-183.657,24.509-99.609-38.668-161.35-159.71-206.018-244.042-38.207-72.124,7.727-56.528,17.583-100.091,20.233-89.395,105.974-148.072,132.13-313.042,26.448-166.833-54.854-325.581,41.916-407.073,155.725-131.161,619.881,207.386,837.888,95.1C2413.472-257.511,2557-510.995,2563.144-430.852Z" transform="translate(192.428 237.427)" fill="none" stroke="#202945" stroke-miterlimit="10" stroke-width="0.25"/>
    <path id="Path_5437" data-name="Path 5437" d="M2553.3-428.3c3.761,50.767,5.456,92.7,61.91,138.122,90.337,72.681,222.969,108.312,310.039,202.73,17.989,32.988,32.976,86.921,27.62,129.134C2936.2,173.1,2860.427,208.924,2752.2,258.566c-129.928,59.592-350.8,36.927-433.412,66.045-140.163,199.49,39.556,553.945-56.278,582.074-83,24.258-285.462-287.157-466.2-262.207-31.463,4.345-51.146,10.885-120.458,30.338-89.069,25-136.732,40.133-179.061,23.513-101.2-39.7-163-163.519-204.661-247.112-35.693-71.6,14.1-53.668,24.327-97.454,20.638-88.283,99.48-149.251,123.609-312.255,24.415-164.99-52.685-321.792,45.4-401.5,157.974-128.389,621.555,205.211,837.089,99.684C2411.8-265.732,2547.106-511.8,2553.3-428.3Z" transform="translate(189.141 242.76)" fill="none" stroke="#202945" stroke-miterlimit="10" stroke-width="0.25"/>
    <path id="Path_5438" data-name="Path 5438" d="M2543.657-425.635c3.788,52.834,5.517,96.214,64.011,143.551,93.164,75.392,230.051,111.532,320.233,208.932,18.138,32.711,34.229,86.514,28.921,128.782-16.382,130.388-97.582,165.539-209.731,212.4-134.455,56.183-359.559,30.081-442.6,54.678-137.946,191.458,38.614,534.5-56.969,560.425-82.786,22.361-285.6-281.436-462.327-258.031-31.043,4.114-50.557,10.208-117.9,29.064-86.664,24.259-133.175,38.9-174.453,22.53-102.789-40.749-164.651-167.335-203.32-250.189-33.171-71.074,20.47-50.8,31.084-94.8,21.038-87.185,92.987-150.444,115.083-311.476,22.374-163.146-50.5-318.017,48.883-395.937,160.225-125.617,623.237,203.028,836.288,104.279C2410.333-273.856,2537.427-512.516,2543.657-425.635Z" transform="translate(185.65 247.997)" fill="none" stroke="#202945" stroke-miterlimit="10" stroke-width="0.25"/>
    <path id="Path_5439" data-name="Path 5439" d="M2534.195-422.873c3.817,54.9,5.586,99.731,66.113,148.98,96,78.1,237.135,114.745,330.434,215.127,18.267,32.433,35.469,86.114,30.21,128.436-16.1,129.378-102.721,163.851-218.78,207.935-138.99,52.787-368.317,23.235-451.808,43.312-135.715,183.412,37.672,515.046-57.647,538.783-82.568,20.456-285.746-275.742-458.463-253.863-30.63,3.877-49.961,9.523-115.348,27.79-84.243,23.52-129.615,37.658-169.842,21.54-104.375-41.807-166.3-171.158-201.971-253.267-30.658-70.552,26.833-47.941,37.835-92.161,21.418-86.087,86.487-151.63,106.557-310.7,20.347-161.3-48.327-314.228,52.366-390.365,162.489-122.845,624.911,200.846,835.49,108.868C2409.054-281.871,2527.919-513.122,2534.195-422.873Z" transform="translate(181.976 253.131)" fill="none" stroke="#202945" stroke-miterlimit="10" stroke-width="0.25"/>
    <path id="Path_5440" data-name="Path 5440" d="M2524.918-420c3.836,56.976,5.653,103.256,68.213,154.416,98.823,80.814,244.2,117.964,340.622,221.329,18.415,32.148,36.729,85.708,31.5,128.077C2949.43,212.195,2857.392,246,2737.421,287.288c-143.523,49.4-377.073,16.389-461.005,31.945-133.486,175.374,36.73,495.607-58.332,517.141C2135.739,854.925,1932.2,566.311,1763.5,586.679c-30.209,3.647-49.391,8.852-112.8,26.509-81.831,22.794-126.051,36.425-165.24,20.571-105.954-42.884-167.938-175-200.622-256.351-28.136-70.037,33.2-45.074,44.592-89.517,21.784-84.989,79.987-152.824,98.024-309.91,18.313-159.466-46.152-310.439,55.864-384.793,164.731-120.079,626.585,198.656,834.675,113.45C2407.949-289.777,2518.6-513.62,2524.918-420Z" transform="translate(178.125 258.149)" fill="none" stroke="#202945" stroke-miterlimit="10" stroke-width="0.25"/>
    <path id="Path_5441" data-name="Path 5441" d="M2515.789-411.293c3.863,59.05,5.72,106.767,70.314,159.845,101.657,83.525,251.287,121.177,350.823,227.531,18.544,31.87,37.97,85.308,32.8,127.718-15.549,127.365-113.01,160.51-236.891,199.009-148.059,46.016-385.831,9.536-470.2,20.571-131.262,167.335,35.788,476.161-59.016,495.5-82.136,16.654-286.045-264.389-450.729-245.519-29.79,3.409-48.788,8.167-110.231,25.234-79.425,22.056-122.492,35.164-160.638,19.582-107.539-43.955-169.585-178.831-199.274-259.428-25.607-69.529,39.543-42.213,51.337-86.867,22.158-83.9,73.494-154.016,89.5-309.131,16.274-157.636-43.976-306.657,59.348-379.229,167-117.3,628.266,196.474,833.877,118.045C2407-291.844,2509.431-508.286,2515.789-411.293Z" transform="translate(174.117 257.336)" fill="none" stroke="#202945" stroke-miterlimit="10" stroke-width="0.25"/>
    <path id="Path_5442" data-name="Path 5442" d="M2506.814-395.166c3.9,61.117,5.789,110.278,72.417,165.275,104.49,86.243,258.363,124.39,361.022,233.725,18.687,31.592,39.217,84.908,34.087,127.372-15.278,126.355-118.154,158.835-245.953,194.542-152.594,42.634-394.581,2.7-479.395,9.2-129.032,159.3,34.839,456.715-59.7,473.857-81.912,14.742-286.194-258.73-446.853-241.358-29.376,3.179-48.206,7.5-107.689,23.96-77.011,21.317-118.912,33.91-156.022,18.6-109.119-45.04-171.226-182.674-197.924-262.5-23.093-69.02,45.887-39.36,58.088-84.23,22.5-82.8,66.986-155.2,80.976-308.344,14.235-155.792-41.792-302.861,62.832-373.651,169.253-114.528,629.941,194.291,833.077,122.628C2406.209-286.5,2500.417-495.527,2506.814-395.166Z" transform="translate(169.956 249.106)" fill="none" stroke="#202945" stroke-miterlimit="10" stroke-width="0.25"/>
    <path id="Path_5443" data-name="Path 5443" d="M2497.982-379.041c3.918,63.2,5.856,113.8,74.524,170.7,107.323,88.961,265.44,127.616,371.211,239.934,18.829,31.308,40.471,84.5,35.387,127.02-15,125.345-123.312,157.168-255.015,190.075-157.127,39.258-403.331-4.155-488.584-2.169-126.8,151.251,33.9,437.269-60.393,452.214-81.681,12.845-286.356-253.083-442.982-237.182-28.962,2.942-47.622,6.819-105.127,22.679-74.6,20.585-115.347,32.643-151.419,17.616-110.7-46.138-172.86-186.524-196.583-265.582-20.557-68.525,52.239-36.5,64.845-81.58,22.842-81.716,60.486-156.4,72.449-307.572,12.188-153.949-39.617-299.065,66.316-368.079,171.525-111.742,631.628,192.108,832.271,127.216C2405.551-281.153,2491.543-482.772,2497.982-379.041Z" transform="translate(165.653 240.871)" fill="none" stroke="#202945" stroke-miterlimit="10" stroke-width="0.25"/>
    <path id="Path_5444" data-name="Path 5444" d="M2489.276-362.906c3.952,65.265,5.938,117.307,76.626,176.133,110.162,91.679,272.515,130.829,381.411,246.136,18.965,31.03,41.712,84.095,36.676,126.661-14.728,124.336-128.457,155.508-264.064,185.609-161.676,35.9-412.1-11-497.79-13.529-124.58,143.212,32.954,417.816-61.069,430.565-81.472,10.946-286.526-247.451-439.113-233.014-28.549,2.711-47.039,6.141-102.579,21.412-72.192,19.839-111.769,31.369-146.811,16.627-112.278-47.25-174.493-190.374-195.234-268.666-18.022-68.024,58.576-33.632,71.589-78.93,23.167-80.624,53.98-157.588,63.93-306.786,10.14-152.118-37.428-295.277,69.807-362.514,173.781-108.956,633.295,189.926,831.463,131.812C2405.026-275.8,2482.8-470.006,2489.276-362.906Z" transform="translate(161.223 232.632)" fill="none" stroke="#202945" stroke-miterlimit="10" stroke-width="0.25"/>
    <path id="Path_5445" data-name="Path 5445" d="M2480.693-346.772c3.972,67.339,6.012,120.818,78.726,181.562,113,94.4,279.6,134.042,391.606,252.338,19.107,30.745,42.966,83.688,37.964,126.308-14.451,123.326-133.6,153.847-273.113,181.142-166.217,32.521-420.846-17.846-506.987-24.9C2086.54,504.849,2240.9,768.052,2147.135,778.6c-81.248,9.042-286.7-241.846-435.249-228.839-28.128,2.467-46.442,5.456-100.016,20.131-69.78,19.114-108.19,30.088-142.2,15.637-113.844-48.361-176.114-194.217-193.885-271.737-15.488-67.529,64.9-30.779,78.334-76.286,23.492-79.547,47.479-158.781,55.409-306,8.093-150.289-35.252-291.488,73.284-356.943,176.052-106.177,634.982,187.737,830.669,136.394C2404.624-270.445,2474.173-457.247,2480.693-346.772Z" transform="translate(156.67 224.395)" fill="none" stroke="#202945" stroke-miterlimit="10" stroke-width="0.25"/>
    <path id="Path_5446" data-name="Path 5446" d="M2472.237-330.636c3.993,69.406,6.08,124.322,80.822,186.991C2668.9-46.529,2839.734-6.383,2954.864,114.889c19.244,30.474,44.207,83.288,39.259,125.955-14.18,122.316-138.76,152.193-282.168,176.682-170.772,29.159-429.616-24.7-516.192-36.276-120.119,127.135,31.078,378.937-62.431,387.281-81.031,7.144-286.879-236.247-431.379-224.663-27.729,2.223-45.866,4.779-97.468,18.85-67.366,18.375-104.6,28.806-137.6,14.654-115.4-49.5-177.726-198.087-192.536-274.814-12.94-67.048,71.229-27.925,85.091-73.643,23.8-78.462,40.965-159.974,46.883-305.22,6.039-148.452-33.071-287.685,76.774-351.371,178.316-103.378,636.657,185.561,829.863,140.982C2404.342-265.086,2465.676-444.479,2472.237-330.636Z" transform="translate(151.996 216.154)" fill="none" stroke="#202945" stroke-miterlimit="10" stroke-width="0.25"/>
    <path id="Path_5447" data-name="Path 5447" d="M2463.878-314.5c4.026,71.481,6.154,127.84,82.929,192.427,118.683,99.833,293.751,140.474,412,264.735,19.378,30.189,45.453,82.881,40.545,125.6-13.915,121.306-143.91,150.539-291.223,172.208-175.32,25.8-438.374-31.545-525.383-47.642-117.9,119.1,30.128,359.491-63.123,365.646-80.814,5.226-287.055-230.669-427.509-220.495-27.315,1.979-45.276,4.094-94.906,17.569-64.967,17.643-101.033,27.512-132.991,13.671-116.968-50.652-179.339-201.951-191.193-277.891-10.384-66.56,77.54-25.072,91.841-71,24.09-77.385,34.452-161.167,38.357-304.434,3.992-146.622-30.887-283.89,80.265-345.807,180.572-100.585,638.324,183.372,829.05,145.578C2404.165-259.727,2457.277-431.712,2463.878-314.5Z" transform="translate(147.22 207.908)" fill="none" stroke="#202945" stroke-miterlimit="10" stroke-width="0.25"/>
    <path id="Path_5448" data-name="Path 5448" d="M2455.628-298.36c4.046,73.555,6.236,131.351,85.037,197.856C2662.18,2.055,2841.485,43.19,2962.852,170.434c19.521,29.9,46.694,82.481,41.847,125.251-13.644,120.3-149.082,148.879-300.285,167.742-179.868,22.435-447.123-38.391-534.581-59.009-115.666,111.051,29.18,340.045-63.808,344-80.59,3.328-287.238-225.111-423.631-216.326-26.909,1.728-44.694,3.416-92.358,16.3-62.554,16.9-97.447,26.211-128.387,12.682C1343.134,509.252,1280.716,355.249,1271.8,280.1c-7.829-66.085,83.857-22.225,98.593-68.349,24.38-76.32,27.938-162.367,29.836-303.654,1.939-144.785-28.7-280.094,83.749-340.235,182.844-97.793,640.006,181.189,828.251,150.16C2404.094-254.371,2448.986-418.94,2455.628-298.36Z" transform="translate(142.336 199.664)" fill="none" stroke="#202945" stroke-miterlimit="10" stroke-width="0.25"/>
    <path id="Path_5449" data-name="Path 5449" d="M2447.467-282.212c4.215,75.615,6.311,134.862,87.138,203.279,124.363,105.283,307.9,146.913,432.389,277.145,19.656,29.627,47.94,82.068,43.135,124.891-13.379,119.279-154.233,147.232-309.34,163.282-184.43,19.08-455.881-45.236-543.778-70.376-113.437,103.012,28.244,320.592-64.487,322.348-80.373,1.423-287.434-219.573-419.775-212.151-26.495,1.477-44.1,2.738-89.795,15.013-60.148,16.172-93.855,24.909-123.779,11.706-120.059-53-182.525-209.691-188.5-284.046-5.26-65.6,90.167-19.378,105.343-65.706,24.658-75.249,21.418-163.56,21.3-302.875-.116-142.948-26.516-276.285,87.239-334.664,185.113-94.994,641.687,179.007,827.451,154.748C2404.115-249,2441.021-406.181,2447.467-282.212Z" transform="translate(137.36 191.413)" fill="none" stroke="#202945" stroke-miterlimit="10" stroke-width="0.25"/>
    <path id="Path_5450" data-name="Path 5450" d="M2439.406-266.067c4.236,77.689,6.378,138.373,89.239,208.715C2655.847,50.656,2843.625,92.781,2971.221,226c19.8,29.342,49.182,81.668,44.43,124.539-13.108,118.269-159.4,145.578-318.39,158.815-188.99,15.725-464.638-52.089-552.981-81.75-111.207,94.973,27.3,301.153-65.177,300.706-80.151-.474-287.625-214.049-415.891-207.983-26.1,1.234-43.522,2.06-87.247,13.746-57.734,15.427-90.269,23.594-119.17,10.716-121.6-54.2-184.111-213.568-187.147-287.122-2.69-65.13,96.458-16.538,112.094-63.062,24.923-74.178,14.9-164.76,12.777-302.088-2.175-141.125-24.326-272.482,90.724-329.1,187.384-92.194,643.361,176.824,826.644,159.344C2404.221-243.631,2432.905-393.4,2439.406-266.067Z" transform="translate(132.292 183.157)" fill="none" stroke="#202945" stroke-miterlimit="10" stroke-width="0.25"/>
    <path id="Path_5451" data-name="Path 5451" d="M2431.423-249.916c4.263,79.764,6.466,141.877,91.347,214.144,130.05,110.725,322.057,153.346,452.777,289.549,19.934,29.057,50.429,81.262,45.724,124.18C3008.414,495.223,2856.7,521.894,2693.82,532.305c-193.552,12.376-473.4-58.935-562.173-93.116C2022.656,526.124,2158,720.9,2065.784,718.253c-79.932-2.379-287.827-208.552-412.027-203.808-25.682.976-42.939,1.376-84.685,12.471-55.329,14.695-86.684,22.279-114.568,9.726C1331.382,481.206,1268.828,319.2,1268.7,246.437c-.1-64.649,102.755-13.692,118.846-60.412,25.187-73.114,8.384-165.953,4.256-301.309-4.243-139.288-22.143-268.68,94.214-323.521C1675.663-528.2,2131.05-264.17,2311.86-274.879,2404.433-238.258,2424.869-380.616,2431.423-249.916Z" transform="translate(127.132 174.903)" fill="none" stroke="#202945" stroke-miterlimit="10" stroke-width="0.25"/>
    <path id="Path_5452" data-name="Path 5452" d="M2423.571-233.766c4.283,81.838,6.541,145.388,93.441,219.58,132.9,113.45,329.139,156.558,462.971,295.744,20.076,28.786,51.675,80.855,47.019,123.834-12.586,116.249-169.734,142.284-336.5,149.875-198.121,9.021-482.153-65.774-571.378-104.483-106.753,78.9,25.417,262.261-66.546,257.428-79.716-4.284-288.038-203.082-408.164-199.646-25.269.725-42.349.7-82.129,11.191-52.916,13.963-83.084,20.971-109.953,8.744-124.634-56.678-187.242-221.308-184.456-293.277,2.487-64.174,109.037-10.851,125.6-57.762,25.438-72.07,1.851-167.152-4.27-300.529-6.3-137.458-19.961-264.871,97.7-317.956,191.918-86.582,646.708,172.459,825.038,168.514C2404.748-232.885,2416.962-367.835,2423.571-233.766Z" transform="translate(121.855 166.643)" fill="none" stroke="#202945" stroke-miterlimit="10" stroke-width="0.25"/>
    <path id="Path_5453" data-name="Path 5453" d="M2415.867-217.6c4.3,83.912,6.621,148.9,95.542,225.009,135.743,116.175,336.216,159.771,473.165,301.946,20.22,28.5,52.917,80.455,48.315,123.475-12.329,115.239-174.9,140.643-345.557,145.415-202.682,5.666-490.91-72.619-580.576-115.849-104.523,70.857,24.476,242.815-67.224,235.779-79.5-6.182-288.254-197.633-404.293-195.471-24.869.461-41.765.013-79.573,9.916-50.51,13.224-79.5,19.643-105.357,7.754-126.132-57.959-188.787-225.185-183.108-296.354,5.091-63.693,115.314-8.018,132.355-55.119,25.681-71.013-4.684-168.352-12.8-299.743-8.377-135.628-17.779-261.062,101.182-312.391,194.19-83.776,648.4,170.277,824.231,173.1C2405.225-227.506,2409.211-355.04,2415.867-217.6Z" transform="translate(116.424 158.376)" fill="none" stroke="#202945" stroke-miterlimit="10" stroke-width="0.25"/>
    <path id="Path_5454" data-name="Path 5454" d="M2408.285-201.442c4.317,85.979,6.7,152.41,97.65,230.431,138.583,118.906,343.292,163,483.36,308.155,20.353,28.217,54.163,80.048,49.607,123.122-12.072,114.23-180.084,139-354.624,140.949C2477.034,603.533,2184.625,521.743,2094.51,474c-102.293,62.805,23.534,223.362-67.908,214.137-79.276-8.093-288.465-192.217-400.424-191.309-24.462.2-41.177-.664-77.019,8.642-48.1,12.492-75.9,18.314-100.748,6.771-127.623-59.26-190.332-229.055-181.751-299.431,7.7-63.218,121.57-5.192,139.091-52.475,25.919-69.963-11.211-169.545-21.316-298.964-10.452-133.791-15.6-257.252,104.666-306.813,196.46-80.963,650.078,168.088,823.438,177.692C2405.824-222.122,2401.574-342.255,2408.285-201.442Z" transform="translate(110.87 150.111)" fill="none" stroke="#202945" stroke-miterlimit="10" stroke-width="0.25"/>
    <path id="Path_5455" data-name="Path 5455" d="M2400.821-185.277c4.346,88.06,6.778,155.921,99.751,235.875C2642,172.222,2850.94,216.8,2994.126,364.947c20.5,27.939,55.4,79.641,50.9,122.763-11.814,113.227-185.25,137.356-363.674,136.482-211.819-1.03-508.417-86.311-598.964-138.583-100.07,54.773,22.584,203.916-68.594,192.488-79.065-9.984-288.688-186.815-396.553-187.127-24.069-.075-40.607-1.349-74.469,7.361-45.7,11.753-72.294,16.986-96.139,5.788-129.094-60.6-191.858-232.919-180.4-302.509,10.316-62.73,127.833-2.365,145.835-49.832,26.15-68.919-17.745-170.731-29.836-298.184-12.526-131.947-13.414-253.436,108.156-301.241,198.724-78.151,651.745,165.9,822.624,182.281C2406.542-216.734,2394.063-329.452,2400.821-185.277Z" transform="translate(105.198 141.836)" fill="none" stroke="#202945" stroke-miterlimit="10" stroke-width="0.25"/>
    <path id="Path_5456" data-name="Path 5456" d="M2393.471-169.105c4.352,90.127,6.853,159.425,101.846,241.3C2639.6,196.547,2852.768,241.621,2999.071,392.75c20.633,27.654,56.644,79.235,52.2,122.417-11.563,112.2-190.427,135.7-372.735,132.008-216.395-4.379-517.174-93.164-608.163-149.956-97.84,46.734,21.642,184.477-69.277,170.846-78.835-11.889-288.906-181.447-392.69-182.958-23.662-.346-40.01-2.034-71.908,6.086-43.291,11.021-68.695,15.651-91.53,4.806-130.551-61.971-193.383-236.776-179.061-305.593,12.947-62.235,134.089.468,152.593-47.175,26.374-67.888-24.285-171.937-38.363-297.405-14.614-130.124-11.231-249.62,111.633-295.67C1692.775-525.18,2145.2-286.127,2313.6-262.98,2407.359-211.339,2386.659-316.649,2393.471-169.105Z" transform="translate(99.42 133.56)" fill="none" stroke="#202945" stroke-miterlimit="10" stroke-width="0.25"/>
    <path id="Path_5457" data-name="Path 5457" d="M2386.19-151.71c4.385,92.2,6.941,162.929,103.961,246.726C2637.275,222.1,2854.672,267.658,3004.1,421.769c20.773,27.383,57.876,78.835,53.485,122.065C3046.28,655.027,2861.972,677.9,2675.8,671.382c-220.976-7.734-525.931-100.016-617.367-161.33-95.617,38.7,20.706,165.031-69.963,149.211-78.611-13.8-289.129-176.119-388.813-178.79-23.262-.624-39.428-2.718-69.352,4.812-40.892,10.289-65.1,14.3-86.929,3.816-131.98-63.388-194.894-240.626-177.711-308.67,15.589-61.741,140.331,3.281,159.344-44.531,26.576-66.858-30.826-173.13-46.89-296.625-16.688-128.28-9.042-245.8,115.124-290.1,203.266-72.511,662.793,133.255,821.025,191.458C2416.313-221.829,2379.332-302.629,2386.19-151.71Z" transform="translate(93.557 124.062)" fill="none" stroke="#202945" stroke-miterlimit="10" stroke-width="0.25"/>
    <path id="Path_5458" data-name="Path 5458" d="M2379.007-135.655c4.4,94.268,7.016,166.434,106.056,252.155C2635.04,246.3,2856.667,292.361,3009.2,449.455c20.91,27.1,59.118,78.428,54.78,121.713-11.048,110.183-200.785,132.415-390.84,123.081-225.552-11.089-534.682-106.862-626.565-172.7-93.387,30.664,19.765,145.585-70.64,127.569-78.4-15.7-289.366-170.812-384.95-174.621-22.862-.908-38.851-3.4-66.8,3.538-38.479,9.557-61.477,12.966-82.312,2.84-133.39-64.859-196.4-244.482-176.37-311.754,18.233-61.239,146.567,6.093,166.094-41.888,26.787-65.828-37.367-174.323-55.41-295.839-18.782-126.45-6.86-241.988,118.615-284.533,205.53-69.685,664.962,133.153,820.212,196.046C2417.411-215.615,2372.094-289.943,2379.007-135.655Z" transform="translate(87.612 115.903)" fill="none" stroke="#202945" stroke-miterlimit="10" stroke-width="0.25"/>
    <path id="Path_5459" data-name="Path 5459" d="M2371.884-119.6c4.419,96.342,7.1,169.951,108.157,257.591,152.823,132.53,378.68,179.075,534.343,339.157,21.054,26.82,60.358,78.021,56.075,121.353-10.8,109.167-205.97,130.775-399.9,118.615-230.133-14.43-543.446-113.7-635.762-184.057-91.156,22.611,18.816,126.132-71.332,105.92-78.177-17.609-289.583-165.553-381.072-170.453-22.469-1.206-38.276-4.087-64.248,2.257-36.086,8.818-57.877,11.624-77.717,1.857-134.766-66.37-197.891-248.312-175.015-314.831,20.884-60.724,152.8,8.9,172.846-39.245,26.983-64.8-43.922-175.509-63.944-295.053-20.869-124.614-4.67-238.172,122.105-278.962,207.8-66.865,666.989,133.073,819.419,200.629C2418.476-209.326,2364.923-277.248,2371.884-119.6Z" transform="translate(81.6 107.736)" fill="none" stroke="#202945" stroke-miterlimit="10" stroke-width="0.25"/>
    <path id="Path_5460" data-name="Path 5460" d="M2364.828-103.521C2369.261-5.1,2372,69.934,2475.079,159.5c155.677,135.262,385.764,182.287,544.538,345.352,21.195,26.542,61.6,77.622,57.361,121.007-10.539,108.157-211.141,129.134-408.943,114.148-234.715-17.779-552.209-120.554-644.959-195.43-88.928,14.566,17.879,106.686-72.01,84.271-77.961-19.5-289.814-160.313-377.217-166.278-22.055-1.5-37.678-4.779-61.686.99-33.679,8.079-54.264,10.262-73.1.861-136.115-67.943-199.388-252.135-173.672-317.9,23.532-60.209,159.011,11.7,179.6-36.6,27.173-63.788-50.483-176.7-72.47-294.274-22.957-122.77-2.487-234.349,125.59-273.39,210.07-64.032,668.86,133.011,818.612,205.224C2419.513-202.954,2357.806-264.546,2364.828-103.521Z" transform="translate(75.526 99.555)" fill="none" stroke="#202945" stroke-miterlimit="10" stroke-width="0.25"/>
    <path id="Path_5461" data-name="Path 5461" d="M2357.822-87.433c4.46,100.484,7.26,176.96,112.366,268.449C2628.712,319,2863.021,366.523,3024.92,532.571c21.33,26.258,62.832,77.215,58.656,120.648-10.3,107.146-216.333,127.494-418,109.688-239.291-21.127-560.961-127.4-654.158-206.8-86.7,6.534,16.938,87.246-72.694,62.629-77.744-21.4-290.037-155.114-373.339-162.1-21.663-1.81-37.1-5.47-59.131-.3-31.294,7.354-50.652,8.927-68.505-.115-137.418-69.59-200.879-255.944-172.324-320.979,26.2-59.674,165.227,14.5,186.347-33.958,27.37-62.778-57.036-177.889-80.99-293.487-25.058-120.933-.312-230.533,129.073-267.819,212.334-61.205,670.581,132.937,817.812,209.806C2420.5-196.524,2350.753-251.826,2357.822-87.433Z" transform="translate(69.389 91.363)" fill="none" stroke="#202945" stroke-miterlimit="10" stroke-width="0.25"/>
    <path id="Path_5462" data-name="Path 5462" d="M2350.875-71.332c4.474,102.565,7.341,180.471,114.46,273.885,161.377,140.718,399.916,188.72,564.925,357.756,21.473,25.973,64.066,76.808,59.951,120.3-10.044,106.13-221.511,125.847-427.061,105.222-243.872-24.482-569.718-134.252-663.355-218.177-84.468-1.5,15.989,67.8-73.372,40.993-77.526-23.31-290.26-149.97-369.475-157.934-21.263-2.142-36.527-6.168-56.583-1.573-28.888,6.615-47.032,7.564-63.9-1.1-138.677-71.318-202.356-259.753-170.968-324.056,28.867-59.138,171.422,17.291,193.1-31.308,27.552-61.775-63.6-179.074-89.517-292.708-27.167-119.1,1.87-226.71,132.563-262.254,214.6-58.372,672.14,132.849,817.006,214.395C2421.44-190.028,2343.751-239.094,2350.875-71.332Z" transform="translate(63.208 83.152)" fill="none" stroke="#202945" stroke-miterlimit="10" stroke-width="0.25"/>
    <path id="Path_5463" data-name="Path 5463" d="M2343.967-55.209c4.494,104.632,7.422,183.975,116.568,279.308,164.224,143.449,406.991,191.939,575.119,363.965,21.609,25.7,65.3,76.409,61.239,119.937-9.793,105.127-226.737,124.58-436.117,100.755-248.508-27.383-578.468-141.1-672.546-229.544-82.245-9.543,15.047,48.354-74.063,19.351-77.3-25.214-290.465-144.853-365.6-153.766-20.863-2.467-35.957-6.859-54.028-2.847-26.494,5.89-43.412,6.208-59.287-2.088-139.891-73.141-203.847-263.549-169.632-327.133,31.531-58.589,177.617,20.07,199.856-28.664,27.729-60.778-70.166-180.261-98.043-291.928-29.267-117.246,4.06-222.881,136.048-256.683,216.862-55.532,673.549,132.727,816.2,218.99C2422.321-183.49,2336.8-226.34,2343.967-55.209Z" transform="translate(56.98 74.925)" fill="none" stroke="#202945" stroke-miterlimit="10" stroke-width="0.25"/>
    <path id="Path_5464" data-name="Path 5464" d="M2337.1-39.069c4.521,106.706,7.5,187.479,118.669,284.737,167.07,146.181,414.067,195.159,585.32,370.167,21.744,25.417,66.533,75.995,62.534,119.584-9.556,104.11-231.922,122.885-445.171,96.288-253.1-30.779-587.232-147.943-681.751-240.91-80.015-17.582,14.106,28.908-74.748-2.291-77.086-27.119-290.667-139.789-361.735-149.6-20.442-2.826-35.368-7.564-51.465-4.121-24.11,5.151-39.793,4.846-54.685-3.077-141.023-75.073-205.333-267.338-168.278-330.21,34.2-58.033,183.792,22.849,206.6-26.021,27.906-59.789-76.733-181.44-106.563-291.142-31.382-115.4,6.235-219.058,139.531-251.118,219.126-52.692,674.81,132.564,815.4,223.579C2423.152-176.913,2329.873-213.568,2337.1-39.069Z" transform="translate(50.714 66.681)" fill="none" stroke="#202945" stroke-miterlimit="10" stroke-width="0.25"/>
    <path id="Path_5465" data-name="Path 5465" d="M2330.259-23.016c4.534,108.78,7.591,190.99,120.777,290.173,169.917,148.906,421.145,198.371,595.508,376.368,21.886,25.133,67.773,75.588,63.829,119.232-9.306,103.1-237.107,121.2-454.227,91.815C2398.466,820.4,2060.163,699.789,1965.2,602.3c-77.791-25.628,13.163,9.455-75.432-23.94C1812.9,549.338,1598.913,443.6,1531.9,432.933c-20.03-3.186-34.8-8.276-48.91-5.4-21.724,4.426-36.174,3.484-50.069-4.06C1290.833,346.337,1226.1,152.364,1265.985,90.183c36.859-57.464,189.96,25.621,213.344-23.371,28.074-58.8-83.295-182.613-115.084-290.363-33.5-113.538,8.473-214.977,143.016-245.539,221.478-49.446,675.929,132.34,814.6,228.168C2423.91-170.411,2322.987-200.885,2330.259-23.016Z" transform="translate(44.416 58.518)" fill="none" stroke="#202945" stroke-miterlimit="10" stroke-width="0.25"/>
    <path id="Path_5466" data-name="Path 5466" d="M2323.458-6.823c4.555,110.847,7.673,194.495,122.872,295.6C2619.1,440.41,2874.55,490.364,3052.038,671.35c22.022,24.855,69,75.181,65.116,118.879-9.062,102.077-242.292,119.516-463.275,87.348-262.275-37.584-604.747-161.635-700.153-263.643-75.562-33.666,12.227-9.984-76.117-45.589C1800.969,537.43,1586.6,438.573,1523.621,427.1c-19.623-3.572-34.237-8.994-46.362-6.676-19.351,3.7-32.542,2.128-45.467-5.043-143.05-79.364-208.3-274.875-165.587-336.372,39.523-56.894,196.128,28.38,220.1-20.727C1514.545.457,1396.432-125.505,1362.7-231.3c-35.618-111.688,10.635-211.189,146.507-239.975,223.721-46.66,676.9,132.062,813.786,232.757C2424.62-163.767,2316.131-188.059,2323.458-6.823Z" transform="translate(38.089 50.221)" fill="none" stroke="#202945" stroke-miterlimit="10" stroke-width="0.25"/>
    <path id="Path_5467" data-name="Path 5467" d="M2316.672,9.385c4.575,112.921,7.754,198,124.979,301.031,175.619,154.362,435.3,204.8,615.9,388.765,22.164,24.577,70.152,74.775,66.417,118.527-9.021,101.053-247.484,117.836-472.338,82.881-266.856-40.973-597.7-185.168-709.344-275.01-65.727-52.888,11.278-29.43-76.8-67.224-76.429-32.833-291.163-124.844-350.124-137.078-19.188-3.985-33.674-9.726-43.8-7.957-16.985,2.975-28.915.766-40.864-6.026-143.883-81.783-209.8-278.63-164.238-339.449,42.186-56.312,202.276,31.131,226.853-18.077C1521.7-7.092,1396.85-135.2,1361.17-239.035c-37.747-109.824,12.8-207.387,149.99-234.4,225.965-43.874,677.746,131.717,812.987,237.338C2425.262-157.123,2309.291-175.22,2316.672,9.385Z" transform="translate(31.739 41.91)" fill="none" stroke="#202945" stroke-miterlimit="10" stroke-width="0.25"/>
    <path id="Path_5468" data-name="Path 5468" d="M2309.9,25.618c4.589,114.989,7.835,201.5,127.08,306.46,178.478,157.094,442.373,208.017,626.1,394.961,22.3,24.3,71.393,74.375,67.705,118.181-8.743,100.043-252.663,116.148-481.394,78.415-271.438-44.375-609.362-187.981-718.542-286.384-64.465-58.087,10.33-48.876-77.486-88.866-76.205-34.73-291.271-119.957-346.254-132.91-18.754-4.419-33.11-10.479-41.25-9.232-14.634,2.257-25.269-.6-36.249-7.008-144.561-84.44-211.29-282.385-162.888-342.526,44.843-55.722,208.409,33.877,233.6-15.433,28.556-55.891-103.039-186.124-140.664-288.017-39.861-107.967,14.979-203.6,153.481-228.832,228.208-41.082,678.464,131.29,812.187,241.927C2425.84-150.467,2302.466-162.362,2309.9,25.618Z" transform="translate(25.379 33.573)" fill="none" stroke="#202945" stroke-miterlimit="10" stroke-width="0.25"/>
    <path id="Path_5469" data-name="Path 5469" d="M2303.129,41.868c4.616,117.07,8.134,204.784,129.182,311.9,181.637,159.473,449.457,211.236,636.3,401.162,22.436,24.015,72.64,73.968,69,117.822-8.473,99.033-257.862,114.467-490.456,73.955-276.021-47.778-621.231-191.112-727.74-297.751-63.53-63.611,9.394-68.322-78.164-110.508C1765.262,501.809,1549.9,423.32,1498.859,409.7c-18.3-4.887-32.567-11.272-38.688-10.506-12.316,1.532-21.635-1.972-31.646-8-145.036-87.389-212.789-286.12-161.547-345.6,47.5-55.125,214.537,36.615,240.354-12.79,28.7-54.943-109.626-187.29-149.19-287.238-42-106.1,17.148-199.795,156.972-223.26,230.452-38.3,679.06,130.795,811.38,246.516C2426.367-143.822,2295.653-149.475,2303.129,41.868Z" transform="translate(19.01 25.213)" fill="none" stroke="#202945" stroke-miterlimit="10" stroke-width="0.25"/>
    <path id="Path_5470" data-name="Path 5470" d="M2296.365,58.146c4.629,119.137,8.14,208.362,131.275,317.325,184.39,162.32,456.533,214.449,646.493,407.364,22.577,23.737,73.887,73.568,70.294,117.469-8.195,98.023-263.041,112.779-499.5,69.481-280.616-51.167-633.24-194.61-736.944-309.11-62.873-69.434,8.452-87.775-78.848-132.157-75.764-38.54-291.359-110.325-338.514-124.573-17.832-5.389-32.188-12.932-36.139-11.78-10-1.206-17.989-3.328-27.044-8.987-145.24-90.71-214.294-289.854-160.191-348.674,50.143-54.529,220.65,39.339,247.105-10.146,28.854-53.994-116.365-188.374-157.717-286.452-44.295-104.151,19.316-196,160.455-217.7,232.688-35.5,679.562,130.212,810.58,251.111C2426.821-137.176,2288.828-136.566,2296.365,58.146Z" transform="translate(12.645 16.831)" fill="none" stroke="#202945" stroke-miterlimit="10" stroke-width="0.25"/>
    <path id="Path_5471" data-name="Path 5471" d="M2289.539,74.443c4.656,121.211,8.161,211.941,133.391,322.748,187.126,165.173,463.608,217.675,656.686,413.573,22.713,23.452,75.134,73.162,71.583,117.11-7.917,97.02-268.219,111.1-508.56,65.021-285.2-54.57-645.272-198.48-746.136-320.484-62.452-75.541,7.5-107.214-79.533-153.8-75.547-40.438-291.311-105.56-334.65-120.4-17.331-5.931-31.612-13.631-33.584-13.061a71.565,71.565,0,0,1-22.428-9.97c-145.1-94.512-215.729-293.508-158.856-351.758,52.868-53.844,226.764,42.058,253.857-7.5,29.01-53.051-122.878-189.553-166.237-285.672-46.355-102.3,21.486-192.2,163.939-212.117,234.939-32.717,679.955,129.534,809.773,255.693C2427.179-130.55,2281.954-123.644,2289.539,74.443Z" transform="translate(6.329 8.43)" fill="none" stroke="#202945" stroke-miterlimit="10" stroke-width="0.25"/>
    <path id="Path_5472" data-name="Path 5472" d="M2282.739,90.763c-7.639-201.449,144.758-214.7,47.181-314.391-128.714-131.493-571.791-290.207-808.974-260.282-143.774,18.145-215.832,106.1-167.422,206.553,45.365,94.146,203.916,232.77,174.763,284.886-27.749,49.615-205.17-48.449-260.607,4.853-59.815,57.525,13.061,255.9,157.5,354.835a180.9,180.9,0,0,0,17.826,10.96,295.744,295.744,0,0,0,31.03,14.329c39.6,15.393,255.455,73.887,330.779,116.229,86.786,48.788,18.023,93.536,80.219,175.442,98.056,129.141,465.553,273.885,755.339,331.857,244.205,48.849,509.977,35.449,517.616-60.555,3.5-44-50.028-93.584-72.884-116.758-196.2-198.887-476.995-251.762-666.881-419.775C2290.913,306.3,2287.408,214.048,2282.739,90.763Z" transform="translate(0 0)" fill="none" stroke="#202945" stroke-miterlimit="10" stroke-width="0.25"/>
  </g>
</svg>
