<svg xmlns="http://www.w3.org/2000/svg" width="36.249" height="41.638" viewBox="0 0 36.249 41.638">
  <path id="food010_-_E208" data-name="food010 - E208" d="M-8.634-36.86a.669.669,0,0,1-.419-.148c-2.019-1.724-2.93-3.472-2.783-5.368a10.856,10.856,0,0,1,1.9-4.605,13.441,13.441,0,0,0,1.675-3.645,4.439,4.439,0,0,0-.887-3.743A.634.634,0,0,1-9-55.256a.63.63,0,0,1,.887.148,5.748,5.748,0,0,1,1.108,4.753,14.1,14.1,0,0,1-1.847,4.014,10.414,10.414,0,0,0-1.724,4.063c-.1,1.478.64,2.832,2.364,4.285a.656.656,0,0,1,.074.911A.656.656,0,0,1-8.634-36.86Zm5.1,0a.669.669,0,0,1-.419-.148,4.248,4.248,0,0,1-1.8-3.472,7.372,7.372,0,0,1,1.207-2.955,8,8,0,0,0,1.01-2.142,2.562,2.562,0,0,0-.517-2.093.634.634,0,0,1,.148-.887.63.63,0,0,1,.887.148,3.7,3.7,0,0,1,.714,3.1A9,9,0,0,1-3.438-42.77a6.146,6.146,0,0,0-1.034,2.364,3.066,3.066,0,0,0,1.354,2.413.656.656,0,0,1,.074.911A.62.62,0,0,1-3.537-36.86ZM9.22-30.876a4.966,4.966,0,0,1,4.95,4.95,4.966,4.966,0,0,1-4.95,4.95,4.8,4.8,0,0,1-2.758-.837A17.02,17.02,0,0,1,4.27-18.735a15.915,15.915,0,0,1-4.9,3.645,13.926,13.926,0,0,1-6.033,1.354A13.926,13.926,0,0,1-12.7-15.091a15.915,15.915,0,0,1-4.9-3.645,16.943,16.943,0,0,1-3.275-5.393,18.129,18.129,0,0,1-1.207-6.6v-3.078a.652.652,0,0,1,.64-.64H8.111a.652.652,0,0,1,.64.64v2.955C8.9-30.851,9.047-30.876,9.22-30.876Zm0,8.619a3.678,3.678,0,0,0,3.669-3.669A3.678,3.678,0,0,0,9.22-29.6a3.032,3.032,0,0,0-.493.049,18.553,18.553,0,0,1-1.182,5.418c-.148.394-.32.788-.493,1.182A3.611,3.611,0,0,0,9.22-22.257Z" transform="translate(22.08 55.374)" fill="#322c47"/>
</svg>
