<?xml version="1.0" encoding="utf-8"?>
<!-- Generator: Adobe Illustrator 19.0.0, SVG Export Plug-In . SVG Version: 6.00 Build 0)  -->
<svg version="1.1" id="Layer_1" xmlns="http://www.w3.org/2000/svg" xmlns:xlink="http://www.w3.org/1999/xlink" x="0px" y="0px"
	 viewBox="-743 468.6 432.1 144.4" style="enable-background:new -743 468.6 432.1 144.4;" xml:space="preserve">
<style type="text/css">
	.st0{fill:#3E3A5F;}
</style>
<g>
	<g>
		<polygon class="st0" points="-373.4,525.9 -396.4,471.2 -416.6,471.2 -416.6,610.3 -392.4,610.3 -392.4,533.2 -362,610.3 
			-338.4,610.3 -338.4,610.3 		"/>
		<polygon class="st0" points="-338.4,566.8 -338.4,471.2 -365.9,471.2 -365.9,500.7 		"/>
	</g>
	<path class="st0" d="M-704.4,542.7l7.3,20.2h8v7.3c0,14.2-4.3,21.2-12.8,21.2c-8.6,0-12.9-6.8-12.9-20.5v-60
		c0-13.7,4.3-20.5,12.9-20.5c2.3,0,4.2,0.5,5.9,1.5c1.6,1,2.9,2.2,3.8,3.6c0.9,1.4,1.6,3.3,2.1,5.5c0.5,2.2,0.8,4.3,1,6.1
		c0.1,1.8,0.2,4,0.2,6.4v11.7h26.9v-10.3c0-5.5-0.4-10.6-1.3-15.1c-0.9-4.6-2.3-8.8-4.2-12.7c-2-3.9-4.5-7.2-7.5-9.9
		c-3-2.7-6.8-4.8-11.3-6.3c-4.8-1.5-9.9-2.3-15.7-2.3c-27.3,0-41,16.4-41,49.3v49c0,4.5,0.4,8.8,1.2,13.1c0.8,4.2,2.1,8.4,3.9,12.5
		c1.8,4.1,4,7.6,6.7,10.6s6,5.4,10.1,7.3c4.1,1.8,8.6,2.7,13.6,2.7c4.6,0,9.1-1.1,13.5-3.4s7.7-5.3,10.1-9l3.6,9.7h18.2v-67.7
		H-704.4z"/>
	<polygon class="st0" points="-519.3,590 -547.9,590 -547.9,548.2 -533,548.2 -527.5,528.5 -547.9,528.5 -547.9,491.6 -525.1,491.6 
		-519.4,471.3 -561.2,471.3 -576,524.1 -576,610.3 -525.1,610.3 	"/>
	<g>
		<path class="st0" d="M-327.2,478.5c0-4.6,3.5-8.2,8.2-8.2c4.6,0,8.2,3.5,8.2,8.2c0,4.7-3.5,8.2-8.2,8.2S-327.2,483.2-327.2,478.5
			 M-312.1,478.5c0-4-3-6.9-6.9-6.9c-4,0-6.9,2.9-6.9,6.9s2.9,7,6.9,7C-315.1,485.5-312.1,482.6-312.1,478.5 M-321.8,483.1
			c-0.3,0-0.4-0.1-0.4-0.4v-8.4c0-0.3,0.1-0.4,0.4-0.4h3.4c1.8,0,2.9,1.1,2.9,2.7c0,1.2-0.6,2.2-1.8,2.5l1.8,3.6
			c0.2,0.3,0,0.4-0.3,0.4h-0.7c-0.2,0-0.3-0.2-0.4-0.3l-1.8-3.5h-1.9c-0.1,0-0.1,0-0.1,0.1v3.4c0,0.3-0.2,0.4-0.4,0.4h-0.7V483.1z
			 M-316.8,476.6c0-0.9-0.5-1.5-1.6-1.5h-2.2c-0.1,0-0.1,0-0.1,0.1v2.7c0,0.1,0,0.1,0.1,0.1h2.2C-317.3,478-316.8,477.5-316.8,476.6
			"/>
	</g>
	<path class="st0" d="M-632.8,610.3v-46l-26.1-93h26.5l13,61.1c1.6-6.7,4-16.9,7.2-30.5c3.2-13.7,5.6-23.9,7.1-30.5h25.7l-26.2,93.1
		v46h-27.2V610.3z"/>
	<path class="st0" d="M-512.7,564.6v-46.7c0-32.9,13.5-49.3,40.6-49.3s40.7,16.4,40.7,49.3v46c0,5.6-0.4,10.7-1.2,15.4
		c-0.8,4.7-2.2,9.2-4.2,13.4s-4.5,7.8-7.6,10.8s-6.9,5.3-11.6,7c-4.7,1.7-10,2.6-16.1,2.6c-6,0-11.3-0.8-16-2.5s-8.6-3.9-11.6-6.8
		c-3-2.9-5.6-6.4-7.5-10.5c-2-4.1-3.4-8.6-4.3-13.2C-512.3,575.3-512.7,570.2-512.7,564.6 M-459.5,570.9v-60
		c0-13.7-4.2-20.5-12.6-20.5c-2.5,0-4.7,0.6-6.4,1.9c-1.8,1.3-3,3-3.9,5.2c-0.8,2.2-1.4,4.4-1.7,6.5c-0.3,2.1-0.5,4.5-0.5,7v60.1
		c0,13.6,4.2,20.5,12.5,20.5C-463.7,591.4-459.5,584.6-459.5,570.9"/>
</g>
</svg>
