<?xml version="1.0" encoding="UTF-8" standalone="no"?>
<svg
   xmlns:dc="http://purl.org/dc/elements/1.1/"
   xmlns:cc="http://creativecommons.org/ns#"
   xmlns:rdf="http://www.w3.org/1999/02/22-rdf-syntax-ns#"
   xmlns:svg="http://www.w3.org/2000/svg"
   xmlns="http://www.w3.org/2000/svg"
   xmlns:xlink="http://www.w3.org/1999/xlink"
   viewBox="0 0 471 448"
   height="448"
   width="471"
   id="svg2"
   version="1.1">
  <metadata
     id="metadata8">
    <rdf:RDF>
      <cc:Work
         rdf:about="">
        <dc:format>image/svg+xml</dc:format>
        <dc:type
           rdf:resource="http://purl.org/dc/dcmitype/StillImage" />
        <dc:title></dc:title>
      </cc:Work>
    </rdf:RDF>
  </metadata>
  <defs
     id="defs6">
    <radialGradient
       xlink:href="#g-0-81"
       id="radialGradient8168"
       gradientUnits="userSpaceOnUse"
       gradientTransform="matrix(0.15745679,0.0932333,-0.09062767,0.15305626,782.1677,-407.68709)"
       cx="50.788498"
       cy="22.778173"
       fx="50.788498"
       fy="22.778173"
       r="30" />
    <radialGradient
       gradientTransform="matrix(0.26878921,0.1466052,-0.15029175,0.2755482,605.90362,608.50586)"
       fy="22.262781"
       fx="52.439857"
       id="g-0-81"
       gradientUnits="userSpaceOnUse"
       cx="52.439857"
       cy="22.262781"
       r="30">
      <stop
         style="stop-color:#ffffff;stop-opacity:1"
         offset="0"
         id="stop14566-29" />
      <stop
         style="stop-color:#ffa876;stop-opacity:1"
         offset="0.01"
         id="stop14568-88" />
      <stop
         style="stop-color:#ff8547;stop-opacity:1"
         offset="0.80000001"
         id="stop14570-682" />
      <stop
         style="stop-color:#ff621e;stop-opacity:1"
         offset="1"
         id="stop14572-0" />
    </radialGradient>
    <radialGradient
       r="30"
       fy="22.778173"
       fx="50.788498"
       cy="22.778173"
       cx="50.788498"
       gradientTransform="matrix(0.17292563,0.10239271,-0.0995311,0.16809279,738.3868,-567.66162)"
       gradientUnits="userSpaceOnUse"
       id="radialGradient841"
       xlink:href="#g-0-81" />
    <radialGradient
       r="30"
       fy="22.778173"
       fx="50.788498"
       cy="22.778173"
       cx="50.788498"
       gradientTransform="matrix(0.14198758,0.08407368,-0.08172403,0.13801938,658.64787,499.96439)"
       gradientUnits="userSpaceOnUse"
       id="radialGradient845"
       xlink:href="#g-0-81" />
  </defs>
  <g
     id="layer1"
     transform="matrix(0.11565127,0,0,0.11565127,71.300788,286.38632)">
    <g
       id="g7936"
       style="display:inline;opacity:1"
       transform="matrix(24,0,0,24,-14631.848,-14570.773)">
      <ellipse
         transform="rotate(75)"
         cx="790.49567"
         cy="-398.10101"
         style="fill:url(#radialGradient8168);stroke-width:0.61396635"
         id="ellipse7938"
         rx="4.3509474"
         ry="4.3509383" />
      <ellipse
         transform="rotate(73.304932)"
         ry="4.7783828"
         rx="4.7783923"
         id="ellipse839"
         style="fill:url(#radialGradient841);stroke-width:0.67428356"
         cy="-557.13379"
         cx="747.5329" />
      <ellipse
         cx="666.15765"
         cy="508.60864"
         style="fill:url(#radialGradient845);stroke-width:0.55364776"
         id="ellipse843"
         rx="3.9234922"
         ry="3.9234843" />
    </g>
  </g>
</svg>
