<?xml version="1.0" encoding="utf-8"?>
<!-- Generator: Adobe Illustrator 19.0.0, SVG Export Plug-In . SVG Version: 6.00 Build 0)  -->
<svg version="1.1" id="Layer_1" xmlns="http://www.w3.org/2000/svg" xmlns:xlink="http://www.w3.org/1999/xlink" x="0px" y="0px"
	 viewBox="-1626.5 977.9 290.8 111.1" style="enable-background:new -1626.5 977.9 290.8 111.1;" xml:space="preserve">
<style type="text/css">
	.st0{fill:none;stroke:#FFFFFF;}
	.st1{font-family:'GTAmerica-ExpandedBold';}
	.st2{font-size:100px;}
</style>
<text transform="matrix(1 0 0 1 -1626 1063.9)" class="st0 st1 st2">OUR</text>
</svg>
