<svg 
xmlns="http://www.w3.org/2000/svg" width="398.746" height="260.835" viewBox="0 0 398.746 260.835">
<path id="Path_5384" data-name="Path 5384" d="M204.859,260.312l44.982-82.517,72.249,20.8L397.91,102.39,290.309,0,82.864,67.662,0,197.661m204.859,62.651-97.592-69.261L78.4,127.978l4.464-60.316m122,192.65L0,197.661l78.4-69.683m170.333-3.049L322.09,198.6m-72.249-20.8-1.107-52.866L290.309,0,107.267,191.051,0,197.661M397.91,102.39,248.734,124.929,107.267,191.051" transform="translate(0.499 0.284)" fill="none" stroke="#322d50" stroke-width="0.5"/>
</svg>