<?xml version="1.0" encoding="utf-8"?>
<!-- Generator: Adobe Illustrator 19.0.0, SVG Export Plug-In . SVG Version: 6.00 Build 0)  -->
<svg version="1.1" id="Layer_1" xmlns="http://www.w3.org/2000/svg" xmlns:xlink="http://www.w3.org/1999/xlink" x="0px" y="0px"
	 viewBox="-573 360.5 439.8 385.3" style="enable-background:new -573 360.5 439.8 385.3;" xml:space="preserve">
<style type="text/css">
	.st0{opacity:0.298;fill:none;stroke:#FFFFFF;stroke-width:0.5;enable-background:new    ;}
</style>
<path id="Path_5315" class="st0" d="M-414.8,385.3l-14.2,123l-98.5,10.2l-45.1,155l182,72l220-185l37.1-199.7 M-414.8,385.3
	l153.4,36.4l66.4,62.8l24.3,75.9 M-414.8,385.3l281.2-24.6L-195,484.6 M-401.5,572.4l-126-53.8 M-429,508.3l27.4,64l10.9,173.1
	l129.3-323.7l127.8-61 M-572.7,673.5l171.1-101.2l140.2-150.6"/>
</svg>
