<?xml version="1.0" encoding="utf-8"?>
<!-- Generator: Adobe Illustrator 19.0.0, SVG Export Plug-In . SVG Version: 6.00 Build 0)  -->
<svg version="1.1" id="Layer_1" xmlns="http://www.w3.org/2000/svg" xmlns:xlink="http://www.w3.org/1999/xlink" x="0px" y="0px"
	 viewBox="-483.5 321.7 379.9 456.3" style="enable-background:new -483.5 321.7 379.9 456.3;" xml:space="preserve">
<style type="text/css">
	.st0{opacity:0.298;fill:none;stroke:#FFFFFF;stroke-width:0.5;enable-background:new    ;}
</style>
<path id="Path_5308" class="st0" d="M-191.1,681.5L-207.8,553l97.4-35.4l6.6-168.7l-203-27l-176.5,243.6l13,212.1 M-191.1,681.5
	l-164.9,1.9l-83.3-46.9l-43.9-70.9 M-191.1,681.5l-279.2,96.2l30.9-141.2 M-251.9,495l141.5,22.7 M-207.8,553l-44.1-58l-54.9-173
	L-356,683.4l-114.2,94.3 M-103.8,349l-148.1,146L-356,683.4"/>
</svg>
